{"contenido":[
	{"tag":"saludo",
		"patrones":["hola", "un saludo", "hello"], 
		"respuestas":["Hola, que tal?", "Como te va?", "Encantado de verte"]
	},
	{"tag":"despedida",
		"patrones":["adios","hasta la proxima", "nos vemos" ],
		"respuestas":["Cuidate", "Nos vemos pronto","Te estare esperando"]
	},
	{"tag":"nombre",
		"patrones":["como te llamas?","quien eres?", "cual es tu nombre?" ],
		"respuestas":["Me llamo Bot y soy un robot"]
	},
	{"tag":"creador",
		"patrones":["quien te ha creado?","quien te ha hecho?", "quien es tu dueño?", "como has nacido?" ],
		"respuestas":["Me ha creado el Grupo 6"]
	},
	{"tag":"servicio",
		"patrones":["para que sirves?", "que haces?"],
		"respuestas":["He sido creado para guiarte por el Planetocio"]
	},
	{"tag":"estado_bien",
		"patrones":["bien", "no va mal" ],
		"respuestas":["Me alegro"]
	},
	{"tag":"estado_mal",
		"patrones":["mal", "regular", "harta" ],
		"respuestas":["Vaya, lo siento"]
	},
	{"tag":"estado_bot",
		"patrones":["y tu?", "que tal?", "y a ti?"],
		"respuestas":["Muy bien, gracias"]
	},
	{"tag":"agradecimiento",
		"patrones":["gracias"],
		"respuestas":["De nada, para eso estoy"]
	},
	{"tag":"otras_tiendas",
		"patrones":["Pull And Bear", "Pull & Bear", "pull", "Bershka", "HYM", "H&M"],
		"respuestas":["Esa tienda no está en este centro comercial"]
	},
	{"tag":"otros_restaurantes",
		"patrones":["Llaollao", "Rodilla", "100 Montaditos", "cien Montaditos", "montaditos", "Taco Bell", "taco", "kebab", "Pans And Company", "pans"],
		"respuestas":["Ese restaurante no está en este centro comercial"]
	},
	{"tag":"tipos_de_restaurante",
		"patrones":["que restaurantes hay?"],
		"respuestas":["Brasa y Leña, TGB, Pizza Hut, Tasty Poket, Ribs, McDonalds, Foster's Hollywood, Ginos y Vips"]
	},
	{"tag":"lugar",
		"patrones":["donde estoy?"],
		"respuestas":["Estas en el centro comercial Planetocio"]
	},
	{"tag":"funcion_Planetocio",
		"patrones":["que puedo hacer aqui?"],
		"respuestas":["Puedes ir a varios restaurantes o a algun sitio de ocio"]
	},
	{"tag":"escape",
		"patrones":["no entiendo"],
		"respuestas":["Perdona, no te he entendido", "No estoy programado para responder eso"]
	},
	{"tag":"STT",
		"patrones":["Punto de inicio"], 
		"respuestas":["Aquí empieza su camino"]
	},
	{"tag":"B17",
		"patrones":["Brasa y Leña","brasa"],
		"respuestas":["Brasa y Leña" ]
	},	
	{"tag":"B25",
		"patrones":["TGB","burger","burguer"],
		"respuestas":["TGB"]
	},
	{"tag":"B27",
		"patrones":["Pizza Hut","pizza","hut"],
		"respuestas":["Pizza Hut"]
	},
	{"tag":"B28",
		"patrones":["Cerveceria", "La Sureña"],
		"respuestas":["La Sureña"]
	},
	{"tag":"B30",
		"patrones":["Tasty Poket","tasty"],
		"respuestas":["Tasty Poket"]
	},
	{"tag":"B01",
		"patrones":["Urban Planet","urban","planet"],
		"respuestas":["Urban Planet"]
	},
	{"tag":"B04",
		"patrones":["Game"],
		"respuestas":["Game"]
	},
	{"tag":"B06",
		"patrones":["Barber Shop","barber","barberia"],
		"respuestas":["Barber Shop"]
	},
	{"tag":"B07",
		"patrones":["Ikaro Peluqueros", "Peluqueria","pelu"],
		"respuestas":["Ikaro Peluqueros"]
	},
	{"tag":"B08",
		"patrones":["Laser Sesion","laser"],
		"respuestas":["Laser Sesion"]
	},
	{"tag":"B09",
		"patrones":["Compramos tu coche","coche"],
		"respuestas":["Compramos tu coche"]
	},
	{"tag":"B10",
		"patrones":["Habitat", "habi","habita"],
		"respuestas":["Habitat"]
	},
	{"tag":"B15",
		"patrones":["Media Markt","mm","markt"],
		"respuestas":["Media Markt"]
	},
	{"tag":"B21",
		"patrones":["Farmacia"],
		"respuestas":["Farmacia"]
	},
	{"tag":"B22",
		"patrones":["Movistar","movis"],
		"respuestas":["Movistar"]
	},
	{"tag":"B34",
		"patrones":["Cat Flap","cat"],
		"respuestas":["Cat Flap"]
	},
	{"tag":"ES1",
		"patrones":["Escalera 1"],
		"respuestas":["Escalera 1"]
	},
	{"tag":"A04",
		"patrones":["Ribs"],
		"respuestas":["Ribs"]
	},
	{"tag":"A14",
		"patrones":["Pause & Play","pp","play"],
		"respuestas":["Pause & Play"]
	},
	{"tag":"A05",
		"patrones":["Sala Junior Yelmo","junior"],
		"respuestas":["Sala Junior Yelmo"]
	},
	{"tag":"A10",
		"patrones":["Fitness", "Fitness Planetocio", "Gimnasio","gym"],
		"respuestas":[ "Gimnasio"]
	},
	{"tag":"A01",
		"patrones":["Yelmo Cines", "Cine"],
		"respuestas":[ "Yelmo Cines"]
	},
	{"tag":"ES2",
		"patrones":["Escalera 2"],
		"respuestas":["Escalera 2"]
	},
	{"tag":"T01",
		"patrones":["McDonalds","mcdo"],
		"respuestas":["McDonalds"]
	},
	{"tag":"T02",
		"patrones":["El Kiosko"],
		"respuestas":["El Kiosko"]
	},
	{"tag":"T45",
		"patrones":["Foster's Hollywood","foster"],
		"respuestas":["Foster's Hollywood"]
	},
	{"tag":"T06",
		"patrones":["Ginos"],
		"respuestas":["Ginos"]
	},
	{"tag":"T07",
		"patrones":["Vips"],
		"respuestas":["Vips"]
	},
	{"tag":"ASE",
		"patrones":["Aseo"],
		"respuestas":["Aseo"]
	},
	{"tag":"0",
		"patrones":["0"],
		"respuestas":["Suba una planta"]
	},
	{"tag":"1",
		"patrones":["1"],
		"respuestas":["Continue recto"]
	},
	{"tag":"2",
		"patrones":["2"],
		"respuestas":["Gire a la izquierda"]
	},
	{"tag":"3",
		"patrones":["3"],
		"respuestas":["Gire a la derecha"]
	}
 ]
}